%YAML 1.1
%TAG !u! tag:unity3d.com,2011:
--- !u!21 &2100000
Material:
  serializedVersion: 6
  m_ObjectHideFlags: 0
  m_PrefabParentObject: {fileID: 0}
  m_PrefabInternal: {fileID: 0}
  m_Name: GradientTest2
  m_Shader: {fileID: 4800000, guid: d478d59bdb69a5a45b4d21a0c0ccc69a, type: 3}
  m_ShaderKeywords: _EMISSION
  m_LightmapFlags: 1
  m_CustomRenderQueue: -1
  stringTagMap: {}
  m_SavedProperties:
    serializedVersion: 2
    m_TexEnvs: []
    m_Floats:
    - first:
        name: _Exponent
      second: 1
    - first:
        name: _Intensity
      second: 1
    - first:
        name: _UpVectorPitch
      second: 0
    - first:
        name: _UpVectorYaw
      second: 0
    m_Colors:
    - first:
        name: _Color1
      second: {r: 0, g: 1, b: 0.04827571, a: 1}
    - first:
        name: _Color2
      second: {r: 0, g: 0.46323532, b: 0.44406688, a: 1}
    - first:
        name: _Color3
      second: {r: 1, g: 1, b: 1, a: 0}
    - first:
        name: _UpVector
      second: {r: 1, g: 1, b: 0, a: 0}
